<?xml version="1.0" encoding="UTF-8" standalone="no"?>
<!-- Created with Inkscape (http://www.inkscape.org/) -->

<svg
   xmlns:dc="http://purl.org/dc/elements/1.1/"
   xmlns:cc="http://creativecommons.org/ns#"
   xmlns:rdf="http://www.w3.org/1999/02/22-rdf-syntax-ns#"
   xmlns:svg="http://www.w3.org/2000/svg"
   xmlns="http://www.w3.org/2000/svg"
   xmlns:sodipodi="http://sodipodi.sourceforge.net/DTD/sodipodi-0.dtd"
   xmlns:inkscape="http://www.inkscape.org/namespaces/inkscape"
   width="210mm"
   height="297mm"
   viewBox="0 0 210 297"
   version="1.1"
   id="svg8"
   inkscape:version="0.92.3 (2405546, 2018-03-11)"
   sodipodi:docname="Cylinder.svg"
   inkscape:export-filename="/home/tobias/git/Delta/src/delta/primitives/Cylinder.png"
   inkscape:export-xdpi="96"
   inkscape:export-ydpi="96">
  <defs
     id="defs2" />
  <sodipodi:namedview
     id="base"
     pagecolor="#ffffff"
     bordercolor="#666666"
     borderopacity="1.0"
     inkscape:pageopacity="0.0"
     inkscape:pageshadow="2"
     inkscape:zoom="1.4"
     inkscape:cx="448.13792"
     inkscape:cy="865.00869"
     inkscape:document-units="mm"
     inkscape:current-layer="layer1"
     showgrid="false"
     inkscape:window-width="1920"
     inkscape:window-height="1015"
     inkscape:window-x="0"
     inkscape:window-y="0"
     inkscape:window-maximized="1" />
  <metadata
     id="metadata5">
    <rdf:RDF>
      <cc:Work
         rdf:about="">
        <dc:format>image/svg+xml</dc:format>
        <dc:type
           rdf:resource="http://purl.org/dc/dcmitype/StillImage" />
        <dc:title></dc:title>
      </cc:Work>
    </rdf:RDF>
  </metadata>
  <g
     inkscape:label="Layer 1"
     inkscape:groupmode="layer"
     id="layer1">
    <path
       style="opacity:1;fill:#cccccc;fill-opacity:1;stroke:#000000;stroke-width:0.80000001;stroke-miterlimit:4;stroke-dasharray:none;stroke-dashoffset:0;stroke-opacity:1"
       id="path815"
       sodipodi:type="arc"
       sodipodi:cx="63.5"
       sodipodi:cy="39.976189"
       sodipodi:rx="24.190477"
       sodipodi:ry="27.59226"
       sodipodi:start="3.2846224"
       sodipodi:end="3.2695078"
       sodipodi:open="true"
       d="M 39.55654,36.043117 A 24.190477,27.59226 0 0 1 66.857675,12.651015 24.190477,27.59226 0 0 1 87.468835,43.702756 24.190477,27.59226 0 0 1 60.323465,67.329525 24.190477,27.59226 0 0 1 39.507159,36.456338" />
    <path
       style="opacity:1;fill:#cccccc;fill-opacity:1;stroke:#000000;stroke-width:0.80000001;stroke-miterlimit:4;stroke-dasharray:none;stroke-dashoffset:0;stroke-opacity:1"
       id="path815-3"
       sodipodi:type="arc"
       sodipodi:cx="95.249886"
       sodipodi:cy="63.788803"
       sodipodi:rx="24.190477"
       sodipodi:ry="27.592262"
       sodipodi:start="3.2846224"
       sodipodi:end="3.2695078"
       sodipodi:open="true"
       d="M 71.306425,59.855731 A 24.190477,27.592262 0 0 1 98.60756,36.463628 24.190477,27.592262 0 0 1 119.21872,67.515371 24.190477,27.592262 0 0 1 92.07335,91.142141 24.190477,27.592262 0 0 1 71.257044,60.268952" />
    <path
       style="fill:none;stroke:#000000;stroke-width:1;stroke-linecap:butt;stroke-linejoin:miter;stroke-miterlimit:4;stroke-dasharray:none;stroke-opacity:1"
       d="m 74.839283,15.596725 c 0,0 34.584837,26.458333 35.529777,26.458333"
       id="path834"
       inkscape:connector-curvature="0" />
    <path
       style="fill:none;stroke:#000000;stroke-width:1;stroke-linecap:butt;stroke-linejoin:miter;stroke-miterlimit:4;stroke-dasharray:none;stroke-opacity:1"
       d="m 48.471095,61.658379 c 0,0 34.584827,26.458335 35.529768,26.458335"
       id="path834-6"
       inkscape:connector-curvature="0" />
    <path
       style="fill:none;stroke:#000000;stroke-width:0.26458332;stroke-linecap:butt;stroke-linejoin:miter;stroke-opacity:1;stroke-miterlimit:4;stroke-dasharray:1.05833327,2.11666654;stroke-dashoffset:0"
       d="M 28.159225,64.166665 H 152.89137"
       id="path851"
       inkscape:connector-curvature="0"
       sodipodi:nodetypes="cc" />
    <path
       style="fill:none;stroke:#000000;stroke-width:0.26458332px;stroke-linecap:butt;stroke-linejoin:miter;stroke-opacity:1"
       d="M 119.44047,63.788689 109.42411,41.299106 88.25744,37.519345 74.083332,50.748511"
       id="path853"
       inkscape:connector-curvature="0" />
    <path
       style="fill:none;stroke:#000000;stroke-width:0.26458332px;stroke-linecap:butt;stroke-linejoin:miter;stroke-opacity:1"
       d="M 83.910714,39.787202 76.653579,18.204763 55.486914,14.425002 41.312806,27.654168"
       id="path853-7"
       inkscape:connector-curvature="0"
       sodipodi:nodetypes="cccc" />
    <flowRoot
       xml:space="preserve"
       id="flowRoot870"
       style="fill:black;fill-opacity:1;stroke:none;font-family:sans-serif;font-style:normal;font-weight:normal;font-size:16px;line-height:1.25;letter-spacing:0px;word-spacing:0px"><flowRegion
         id="flowRegion872"><rect
           id="rect874"
           width="22.142857"
           height="80"
           x="444.28571"
           y="263.23398" /></flowRegion><flowPara
         id="flowPara876" /></flowRoot>    <text
       xml:space="preserve"
       style="font-style:normal;font-weight:normal;font-size:4.23333311px;line-height:1.25;font-family:sans-serif;letter-spacing:0px;word-spacing:0px;fill:#000000;fill-opacity:1;stroke:none;stroke-width:0.26458332"
       x="119.96964"
       y="63.788689"
       id="text880"><tspan
         sodipodi:role="line"
         id="tspan878"
         x="119.96964"
         y="63.788689"
         style="stroke-width:0.26458332">0</tspan></text>
    <text
       xml:space="preserve"
       style="font-style:normal;font-weight:normal;font-size:4.23333311px;line-height:1.25;font-family:sans-serif;letter-spacing:0px;word-spacing:0px;fill:#000000;fill-opacity:1;stroke:none;stroke-width:0.26458332"
       x="109.42411"
       y="41.299107"
       id="text884"><tspan
         sodipodi:role="line"
         id="tspan882"
         x="109.42411"
         y="41.299107"
         style="stroke-width:0.26458332">1</tspan></text>
    <text
       xml:space="preserve"
       style="font-style:normal;font-weight:normal;font-size:4.23333311px;line-height:1.25;font-family:sans-serif;letter-spacing:0px;word-spacing:0px;fill:#000000;fill-opacity:1;stroke:none;stroke-width:0.26458332"
       x="88.257446"
       y="35.402676"
       id="text888"><tspan
         sodipodi:role="line"
         id="tspan886"
         x="88.257446"
         y="35.402676"
         style="stroke-width:0.26458332">2</tspan></text>
    <text
       xml:space="preserve"
       style="font-style:normal;font-weight:normal;font-size:4.23333311px;line-height:1.25;font-family:sans-serif;letter-spacing:0px;word-spacing:0px;fill:#000000;fill-opacity:1;stroke:none;stroke-width:0.26458332"
       x="75.40625"
       y="54.339287"
       id="text892"><tspan
         sodipodi:role="line"
         id="tspan890"
         x="75.40625"
         y="54.339287"
         style="stroke-width:0.26458332">3</tspan></text>
    <text
       xml:space="preserve"
       style="font-style:normal;font-weight:normal;font-size:4.23333311px;line-height:1.25;font-family:sans-serif;letter-spacing:0px;word-spacing:0px;fill:#000000;fill-opacity:1;stroke:none;stroke-width:0.26458332"
       x="76.729164"
       y="40.543152"
       id="text896"><tspan
         sodipodi:role="line"
         id="tspan894"
         x="76.729164"
         y="40.543152"
         style="stroke-width:0.26458332">2k</tspan></text>
    <text
       xml:space="preserve"
       style="font-style:normal;font-weight:normal;font-size:4.23333311px;line-height:1.25;font-family:sans-serif;letter-spacing:0px;word-spacing:0px;fill:#000000;fill-opacity:1;stroke:none;stroke-width:0.26458332"
       x="78.657875"
       y="17.222025"
       id="text896-3"><tspan
         sodipodi:role="line"
         id="tspan894-6"
         x="78.657875"
         y="17.222025"
         style="stroke-width:0.26458332">2k+1</tspan></text>
    <text
       xml:space="preserve"
       style="font-style:normal;font-weight:normal;font-size:4.23333311px;line-height:1.25;font-family:sans-serif;letter-spacing:0px;word-spacing:0px;fill:#000000;fill-opacity:1;stroke:none;stroke-width:0.26458332"
       x="45.622761"
       y="12.459523"
       id="text896-7"><tspan
         sodipodi:role="line"
         id="tspan894-5"
         x="45.622761"
         y="12.459523"
         style="stroke-width:0.26458332">2k+2</tspan></text>
    <text
       xml:space="preserve"
       style="font-style:normal;font-weight:normal;font-size:4.23333311px;line-height:1.25;font-family:sans-serif;letter-spacing:0px;word-spacing:0px;fill:#000000;fill-opacity:1;stroke:none;stroke-width:0.26458332"
       x="32.771568"
       y="25.121725"
       id="text896-35"><tspan
         sodipodi:role="line"
         id="tspan894-62"
         x="32.771568"
         y="25.121725"
         style="stroke-width:0.26458332">2k+3</tspan></text>
  </g>
</svg>
