<?xml version="1.0" encoding="UTF-8" standalone="no"?>
<!-- Created with Inkscape (http://www.inkscape.org/) -->

<svg
   xmlns:dc="http://purl.org/dc/elements/1.1/"
   xmlns:cc="http://creativecommons.org/ns#"
   xmlns:rdf="http://www.w3.org/1999/02/22-rdf-syntax-ns#"
   xmlns:svg="http://www.w3.org/2000/svg"
   xmlns="http://www.w3.org/2000/svg"
   xmlns:sodipodi="http://sodipodi.sourceforge.net/DTD/sodipodi-0.dtd"
   xmlns:inkscape="http://www.inkscape.org/namespaces/inkscape"
   width="210mm"
   height="297mm"
   viewBox="0 0 210 297"
   version="1.1"
   id="svg8"
   inkscape:version="0.92.3 (2405546, 2018-03-11)"
   sodipodi:docname="geometric.svg">
  <defs
     id="defs2" />
  <sodipodi:namedview
     id="base"
     pagecolor="#ffffff"
     bordercolor="#666666"
     borderopacity="1.0"
     inkscape:pageopacity="0.0"
     inkscape:pageshadow="2"
     inkscape:zoom="1.4"
     inkscape:cx="285.90575"
     inkscape:cy="392.28831"
     inkscape:document-units="mm"
     inkscape:current-layer="layer1"
     showgrid="false"
     inkscape:window-width="1920"
     inkscape:window-height="1015"
     inkscape:window-x="0"
     inkscape:window-y="0"
     inkscape:window-maximized="1" />
  <metadata
     id="metadata5">
    <rdf:RDF>
      <cc:Work
         rdf:about="">
        <dc:format>image/svg+xml</dc:format>
        <dc:type
           rdf:resource="http://purl.org/dc/dcmitype/StillImage" />
        <dc:title />
      </cc:Work>
    </rdf:RDF>
  </metadata>
  <g
     inkscape:label="Layer 1"
     inkscape:groupmode="layer"
     id="layer1">
    <path
       style="opacity:1;fill:#ececec;fill-opacity:1;stroke:#000000;stroke-width:0;stroke-miterlimit:4;stroke-dasharray:none;stroke-dashoffset:0;stroke-opacity:1"
       d="m 115.28274,199.48214 c 0.0337,-0.91984 13.5456,-33.80922 13.67882,-33.94244 47.88923,16.48179 0,0 47.88923,16.48179 0.27766,0.0261 -60.90915,17.69516 -61.29496,17.7234 -0.15592,0.0114 -0.27881,-0.10683 -0.27309,-0.26275 z"
       id="path939"
       inkscape:connector-curvature="0"
       sodipodi:nodetypes="ccccc" />
    <path
       style="fill:none;stroke:#000000;stroke-width:0.26458332px;stroke-linecap:butt;stroke-linejoin:miter;stroke-opacity:1"
       d="M 32.505951,73.994046 27.214285,112.54762"
       id="path819"
       inkscape:connector-curvature="0" />
    <path
       style="fill:none;stroke:#000000;stroke-width:0.26458332px;stroke-linecap:butt;stroke-linejoin:miter;stroke-opacity:1"
       d="M 27.214285,112.54762 71.815475,81.55357 32.505951,73.994046"
       id="path821"
       inkscape:connector-curvature="0" />
    <path
       style="fill:none;stroke:#000000;stroke-width:0.26458332px;stroke-linecap:butt;stroke-linejoin:miter;stroke-opacity:1"
       d="m 71.815475,81.55357 92.226185,81.64286 -51.40476,25.70238 z"
       id="path823"
       inkscape:connector-curvature="0" />
    <path
       style="fill:none;stroke:#000000;stroke-width:0.26458332px;stroke-linecap:butt;stroke-linejoin:miter;stroke-opacity:1"
       d="M 27.214285,112.54762 112.6369,188.89881"
       id="path825"
       inkscape:connector-curvature="0" />
    <path
       style="fill:none;stroke:#000000;stroke-width:0.26499999;stroke-linecap:butt;stroke-linejoin:miter;stroke-opacity:1;stroke-miterlimit:4;stroke-dasharray:0.79499996,0.79499996;stroke-dashoffset:0"
       d="m 164.04166,163.19643 -45.53158,-12.20015 -5.87318,37.90253"
       id="path827"
       inkscape:connector-curvature="0" />
    <g
       id="g832">
      <path
         inkscape:connector-curvature="0"
         id="path829"
         d="M 118.51008,150.99628 32.505951,73.994046"
         style="fill:none;stroke:#000000;stroke-width:0.26458332;stroke-linecap:butt;stroke-linejoin:miter;stroke-opacity:1;stroke-miterlimit:4;stroke-dasharray:1.05833327,2.11666654;stroke-dashoffset:0" />
    </g>
    <path
       style="fill:none;stroke:#000000;stroke-width:0.26458332px;stroke-linecap:butt;stroke-linejoin:miter;stroke-opacity:1"
       d="M 43.467262,224.05059 202.21726,205.90773 m 0,0 -46.1131,-73.32737 -110.369041,91.84821"
       id="path903"
       inkscape:connector-curvature="0" />
    <path
       style="fill:none;stroke:#000000;stroke-width:0.26458332px;stroke-linecap:butt;stroke-linejoin:miter;stroke-opacity:1"
       d="m 112.6369,188.89881 2.64584,10.58333"
       id="path941"
       inkscape:connector-curvature="0" />
    <path
       style="fill:none;stroke:#000000;stroke-width:0.26458332px;stroke-linecap:butt;stroke-linejoin:miter;stroke-opacity:1"
       d="m 114.2244,193.66127 6.61458,-1.5119 1.5119,5.48065"
       id="path943"
       inkscape:connector-curvature="0" />
    <path
       style="fill:none;stroke:#000000;stroke-width:0.26458332px;stroke-linecap:butt;stroke-linejoin:miter;stroke-opacity:1"
       d="m 156.10416,132.58036 -20.97767,80.8869 -15.68602,52.16071 v 0"
       id="path945"
       inkscape:connector-curvature="0"
       sodipodi:nodetypes="cccc" />
    <path
       style="opacity:1;fill:#000000;fill-opacity:1;stroke:#000000;stroke-width:0;stroke-miterlimit:4;stroke-dasharray:none;stroke-dashoffset:0;stroke-opacity:1"
       id="path947"
       sodipodi:type="arc"
       sodipodi:cx="117.93145"
       sodipodi:cy="195.99347"
       sodipodi:rx="1.6067752"
       sodipodi:ry="1.5122833"
       sodipodi:start="3.2846224"
       sodipodi:end="3.2823011"
       d="m 116.34108,195.7779 a 1.6067752,1.5122833 0 0 1 1.81848,-1.2814 1.6067752,1.5122833 0 0 1 1.36252,1.7108 1.6067752,1.5122833 0 0 1 -1.81689,1.28338 1.6067752,1.5122833 0 0 1 -1.36464,-1.7093 l 1.5909,0.21209 z" />
    <path
       style="fill:none;stroke:#000000;stroke-width:0.26458332px;stroke-linecap:butt;stroke-linejoin:miter;stroke-opacity:1"
       d="m 133.67169,178.50446 6.80358,13.98512"
       id="path941-3"
       inkscape:connector-curvature="0"
       sodipodi:nodetypes="cc" />
    <path
       style="fill:none;stroke:#000000;stroke-width:0.26458332px;stroke-linecap:butt;stroke-linejoin:miter;stroke-opacity:1"
       d="m 136.01514,182.88895 5.10268,-2.26785 -2.26786,-5.10269"
       id="path943-5"
       inkscape:connector-curvature="0"
       sodipodi:nodetypes="ccc" />
    <path
       style="opacity:1;fill:#000000;fill-opacity:1;stroke:#000000;stroke-width:0;stroke-miterlimit:4;stroke-dasharray:none;stroke-dashoffset:0;stroke-opacity:1"
       id="path947-6"
       sodipodi:type="arc"
       sodipodi:cx="137.37869"
       sodipodi:cy="179.24919"
       sodipodi:rx="1.6067752"
       sodipodi:ry="1.5122833"
       sodipodi:start="3.2846224"
       sodipodi:end="3.2823011"
       d="m 135.78832,179.03363 a 1.6067752,1.5122833 0 0 1 1.81848,-1.2814 1.6067752,1.5122833 0 0 1 1.36253,1.71079 1.6067752,1.5122833 0 0 1 -1.8169,1.28339 1.6067752,1.5122833 0 0 1 -1.36463,-1.70931 l 1.59089,0.21209 z" />
    <text
       xml:space="preserve"
       style="font-style:normal;font-weight:normal;font-size:10.32788754px;line-height:1.25;font-family:sans-serif;letter-spacing:0px;word-spacing:0px;fill:#000000;fill-opacity:1;stroke:none;stroke-width:0.64549297"
       x="86.092278"
       y="214.22321"
       id="text972"><tspan
         sodipodi:role="line"
         id="tspan970"
         x="86.092278"
         y="214.22321"
         style="stroke-width:0.64549297">A</tspan></text>
    <text
       xml:space="preserve"
       style="font-style:normal;font-weight:normal;font-size:10.32788754px;line-height:1.25;font-family:sans-serif;letter-spacing:0px;word-spacing:0px;fill:#000000;fill-opacity:1;stroke:none;stroke-width:0.64549297"
       x="181.0004"
       y="201.66199"
       id="text976"><tspan
         sodipodi:role="line"
         id="tspan974"
         x="181.0004"
         y="201.66199"
         style="stroke-width:0.64549297">B</tspan></text>
    <text
       xml:space="preserve"
       style="font-style:normal;font-weight:normal;font-size:10.32788754px;line-height:1.25;font-family:sans-serif;letter-spacing:0px;word-spacing:0px;fill:#000000;fill-opacity:1;stroke:none;stroke-width:0.64549297"
       x="121.85347"
       y="165.44789"
       id="text980"><tspan
         sodipodi:role="line"
         id="tspan978"
         x="121.85347"
         y="165.44789"
         style="stroke-width:0.64549297">X</tspan></text>
    <text
       xml:space="preserve"
       style="font-style:normal;font-weight:normal;font-size:10.32788754px;line-height:1.25;font-family:sans-serif;letter-spacing:0px;word-spacing:0px;fill:#000000;fill-opacity:1;stroke:none;stroke-width:0.64549297"
       x="87.716034"
       y="247.75458"
       id="text972-3"><tspan
         sodipodi:role="line"
         id="tspan970-6"
         x="87.716034"
         y="247.75458"
         style="stroke-width:0.64549297">C</tspan></text>
    <path
       style="fill:none;stroke:#000000;stroke-width:0.26458332px;stroke-linecap:butt;stroke-linejoin:miter;stroke-opacity:1"
       d="m 45.735118,224.42857 73.705352,41.1994 82.77679,-59.72024"
       id="path872"
       inkscape:connector-curvature="0"
       sodipodi:nodetypes="ccc" />
    <text
       xml:space="preserve"
       style="font-style:normal;font-weight:normal;font-size:10.32788754px;line-height:1.25;font-family:sans-serif;letter-spacing:0px;word-spacing:0px;fill:#000000;fill-opacity:1;stroke:none;stroke-width:0.64549297"
       x="135.28809"
       y="236.41528"
       id="text972-3-7"><tspan
         sodipodi:role="line"
         id="tspan970-6-5"
         x="135.28809"
         y="236.41528"
         style="stroke-width:0.64549297">D</tspan></text>
    <path
       style="fill:none;stroke:#000000;stroke-width:0.26458332px;stroke-linecap:butt;stroke-linejoin:miter;stroke-opacity:1"
       d="m 112.6369,188.89881 1.13394,26.45833"
       id="path941-36"
       inkscape:connector-curvature="0"
       sodipodi:nodetypes="cc" />
    <path
       style="fill:none;stroke:#000000;stroke-width:0.26458332px;stroke-linecap:butt;stroke-linejoin:miter;stroke-opacity:1"
       d="m 113.62731,210.97691 5.48066,-0.56696 0.56696,4.7247"
       id="path943-7"
       inkscape:connector-curvature="0"
       sodipodi:nodetypes="ccc" />
    <path
       style="opacity:1;fill:#000000;fill-opacity:1;stroke:#000000;stroke-width:0;stroke-miterlimit:4;stroke-dasharray:none;stroke-dashoffset:0;stroke-opacity:1"
       id="path947-5"
       sodipodi:type="arc"
       sodipodi:cx="116.41669"
       sodipodi:cy="213.24051"
       sodipodi:rx="1.6067752"
       sodipodi:ry="1.5122833"
       sodipodi:start="3.2846224"
       sodipodi:end="3.2823011"
       d="m 114.82632,213.02494 a 1.6067752,1.5122833 0 0 1 1.81848,-1.2814 1.6067752,1.5122833 0 0 1 1.36252,1.7108 1.6067752,1.5122833 0 0 1 -1.8169,1.28338 1.6067752,1.5122833 0 0 1 -1.36463,-1.7093 l 1.5909,0.21209 z" />
  </g>
</svg>
